\relax 
\citation{article:SVStandard:2013}
\citation{article:UVM:2015}
\citation{inproceedings:KitchbenKuehlmann:2007}
\citation{inproceedings:HuangYeg:2010}
\citation{article:ChengetAl:2014}
\citation{inproceedings:HDLAnalysisApproach:2007}
\citation{article:MarkovModelsApproach:2007}
\citation{inproceedings:GoloubevaReordaViolante:2004}
\citation{inproceedings:GACodasip:2015}
\citation{inproceedings:GACodasip:2015}
\providecommand \oddpage@label [2]{}
\@writefile{toc}{\contentsline {section}{\numberline {I}Introduction}{1}}
\newlabel{intro}{{I}{1}}
\@writefile{toc}{\contentsline {section}{\numberline {II}Related work}{1}}
\citation{article:Hopfield:1982}
\@writefile{toc}{\contentsline {section}{\numberline {III}Proposed approach}{2}}
\@writefile{toc}{\contentsline {subsection}{\numberline {\unhbox \voidb@x \hbox {III-A}}Integration of combinatorial optimization and verification environment}{2}}
\@writefile{lof}{\contentsline {figure}{\numberline {1}{\ignorespaces Integration of RNN into the closed-loop solution.}}{2}}
\newlabel{fig:RNNIntegration}{{1}{2}}
\@writefile{toc}{\contentsline {subsection}{\numberline {\unhbox \voidb@x \hbox {III-B}}Hopfield model}{2}}
\citation{article:Hopfield:1982}
\citation{misc:Lagoudakisneuralnetworks:1997}
\@writefile{lof}{\contentsline {figure}{\numberline {2}{\ignorespaces Schema of the neuron used in Hopfield network.}}{3}}
\newlabel{fig:neuron}{{2}{3}}
\newlabel{eq:weightmatrix}{{1}{3}}
\newlabel{eq:basef}{{2}{3}}
\newlabel{eq:activationf}{{3}{3}}
\newlabel{eq:output}{{4}{3}}
\newlabel{eq:constraintZeroDiagonal}{{5}{3}}
\newlabel{eq:symetricWeights}{{6}{3}}
\@writefile{toc}{\contentsline {subsection}{\numberline {\unhbox \voidb@x \hbox {III-C}}Proposed solutions}{3}}
\newlabel{propsolutions}{{\unhbox \voidb@x \hbox {III-C}}{3}}
\newlabel{eq:designedenergyfun}{{7}{3}}
\newlabel{eq:eqconstrain}{{8}{4}}
\newlabel{eq:balancedmodel}{{9}{4}}
\newlabel{eq:activationfadjusted}{{10}{4}}
\@writefile{toc}{\contentsline {subsubsection}{\numberline {\unhbox \voidb@x \hbox {III-C}1}Bipolar model}{4}}
\newlabel{subsubsection:acyclicgraphmodel}{{\unhbox \voidb@x \hbox {III-C}2}{4}}
\@writefile{toc}{\contentsline {subsubsection}{\numberline {\unhbox \voidb@x \hbox {III-C}2}Acyclic graph model}{4}}
\newlabel{alg:bipolarWeights}{{1}{4}}
\@writefile{loa}{\contentsline {algocf}{\numberline {1}{\ignorespaces  Assigning weights to the bipolar model}}{4}}
\newlabel{alg:modifyWeights}{{2}{4}}
\@writefile{loa}{\contentsline {algocf}{\numberline {2}{\ignorespaces $\textsc  {ModifyWeights}$(oddModifier,sum,\textbf  {W})}}{4}}
\@writefile{toc}{\contentsline {subsection}{\numberline {\unhbox \voidb@x \hbox {III-D}}Model usage}{4}}
\citation{misc:CodasipWebPage:2017}
\@writefile{lof}{\contentsline {figure}{\numberline {3}{\ignorespaces A part of acyclic graph generated from ISA. $A$, $B$, $C$, $D$ are examples of unique instance vector members -- each represented by a neuron. Neuron combinations $(B,C)$ and $(B,D)$ have non-zero connection weights, since neurons $B$ and $C$ have the same set and the member of $B$ is a set of $D$. The probability of generating instruction \textit  {i\_LUI} by PRG is equal to $P(isa)P(2\_operands|isa)P(i\_LUI|2\_operands)$.}}{5}}
\newlabel{fig:ISAGraph}{{3}{5}}
\newlabel{alg:acyclicweightdef}{{3}{5}}
\@writefile{loa}{\contentsline {algocf}{\numberline {3}{\ignorespaces Acyclic graph model weights}}{5}}
\@writefile{toc}{\contentsline {section}{\numberline {IV}Results}{5}}
\newlabel{sec:results}{{IV}{5}}
\newlabel{alg:continuousoptimization}{{4}{5}}
\@writefile{loa}{\contentsline {algocf}{\numberline {4}{\ignorespaces On-the-fly optimization of constraints}}{5}}
\newlabel{alg:bestprograms}{{5}{5}}
\@writefile{loa}{\contentsline {algocf}{\numberline {5}{\ignorespaces Seeking the optimal stimuli set}}{5}}
\citation{inproceedings:GACodasip:2015}
\bibstyle{IEEEtran}
\bibdata{references}
\bibcite{article:SVStandard:2013}{1}
\bibcite{article:UVM:2015}{2}
\bibcite{inproceedings:KitchbenKuehlmann:2007}{3}
\bibcite{inproceedings:HuangYeg:2010}{4}
\bibcite{article:ChengetAl:2014}{5}
\bibcite{inproceedings:HDLAnalysisApproach:2007}{6}
\bibcite{article:MarkovModelsApproach:2007}{7}
\bibcite{inproceedings:GoloubevaReordaViolante:2004}{8}
\bibcite{inproceedings:GACodasip:2015}{9}
\bibcite{article:Hopfield:1982}{10}
\@writefile{lof}{\contentsline {figure}{\numberline {4}{\ignorespaces Comparison of the proposed models and the GA during the Codasip uRISC processor verification. The optimal stimuli set was found in 12.05 hours, the final set was able to reach 100\% coverage in 8.94 minutes and contained 70 assembler programs. In contrast, default approach generated 390 programs in the shown interval. }}{6}}
\newlabel{fig:UriscComparison}{{4}{6}}
\@writefile{lof}{\contentsline {figure}{\numberline {5}{\ignorespaces Comparison of the proposed models during the Codix Cobalt processor verification. After 63.73 hours of the optimal stimuli set optimization the final set was able to reach 87.6\% coverage in 55.39 minutes and it contained 326 programs. The default approach generated 1000 programs during the measured interval.}}{6}}
\newlabel{fig:CobaltComparison}{{5}{6}}
\@writefile{lof}{\contentsline {figure}{\numberline {6}{\ignorespaces The average output of network neurons during the Acyclic graph model experiment made on the Codasip uRISC.}}{6}}
\newlabel{fig:BalancedWeightsModel}{{6}{6}}
\@writefile{toc}{\contentsline {section}{References}{6}}
\bibcite{misc:Lagoudakisneuralnetworks:1997}{11}
\bibcite{misc:CodasipWebPage:2017}{12}
